<svg width="100%" viewBox="0 0 24 24" fill="none" xmlns="http://www.w3.org/2000/svg">
<path fill-rule="evenodd" clip-rule="evenodd" d="M13.993 4.83473C13.993 4.61335 14.0773 4.40103 14.2275 4.24449C14.3777 4.08795 14.5813 4 14.7937 4H21.1993C21.4117 4 21.6153 4.08795 21.7655 4.24449C21.9156 4.40103 22 4.61335 22 4.83473V11.5126C22 11.734 21.9156 11.9463 21.7655 12.1028C21.6153 12.2594 21.4117 12.3473 21.1993 12.3473C20.9869 12.3473 20.7833 12.2594 20.6331 12.1028C20.483 11.9463 20.3986 11.734 20.3986 11.5126V7.17198L14.6127 14.546C14.5419 14.6361 14.4537 14.7098 14.354 14.7623C14.2542 14.8148 14.1449 14.8449 14.0333 14.8507C13.9217 14.8565 13.8101 14.8379 13.7058 14.7961C13.6015 14.7542 13.5068 14.6901 13.4277 14.6078L9.28484 10.2889L3.4301 18.6813C3.30202 18.851 3.1158 18.9625 2.91057 18.9921C2.70535 19.0217 2.49709 18.9673 2.32956 18.8402C2.16204 18.7131 2.04829 18.5233 2.01223 18.3106C1.97616 18.0979 2.02058 17.8789 2.13616 17.6996L8.54178 8.51757C8.60977 8.41993 8.69726 8.33882 8.79822 8.27982C8.89917 8.22082 9.0112 8.18534 9.12657 8.17582C9.24195 8.16629 9.35793 8.18296 9.46653 8.22467C9.57513 8.26637 9.67377 8.33213 9.75565 8.4174L13.9337 12.7747L19.5098 5.66946H14.7937C14.5813 5.66946 14.3777 5.58152 14.2275 5.42498C14.0773 5.26843 13.993 5.05612 13.993 4.83473Z" fill="var(--fill, #272727)"/>
</svg>
